%YAML 1.1
%TAG !u! tag:unity3d.com,2011:
--- !u!114 &11400000
MonoBehaviour:
  m_ObjectHideFlags: 0
  m_CorrespondingSourceObject: {fileID: 0}
  m_PrefabInstance: {fileID: 0}
  m_PrefabAsset: {fileID: 0}
  m_GameObject: {fileID: 0}
  m_Enabled: 1
  m_EditorHideFlags: 0
  m_Script: {fileID: 11500000, guid: 14c32508a6498b94da9be979073d30eb, type: 3}
  m_Name: Orphan
  m_EditorClassIdentifier: 
  name: Orphelin
  dialogue:
  - Monsieur, pourrais-tu me donner un peu d'argent.
  - Merci, Monsieur vous me sauvez la vie.
  - (En pleurnichant il dit OK, Monsieur.)
  playerDialogue:
  - 'D''accord

'
  - Non
