%YAML 1.1
%TAG !u! tag:unity3d.com,2011:
--- !u!1045 &1
EditorBuildSettings:
  m_ObjectHideFlags: 0
  serializedVersion: 2
  m_Scenes:
  - enabled: 1
    path: Assets/Scenes/StartMenu.unity
    guid: 23d973290f8d5ca41b19521abbbe9809
  - enabled: 1
    path: Assets/Scenes/Playground.unity
    guid: e9017d5f96b9f09489b4b37e1d6eb914
  - enabled: 1
    path: Assets/Scenes/End.unity
    guid: 71b40b4156384604084b2f6c3920cfa8
  m_configObjects:
    com.unity.input.settings: {fileID: 11400000, guid: 9e7be553448fa2546aea5752021cbcf7, type: 2}
